Regression Analysis of Bike Sharing Demand
…
Lasso

split.perc = .80

train.indices = sample(1:dim(train.mod.1)[1],round(split.perc * dim(train.mod.1)[1]))

train.mod.1.train = train.mod.1[train.indices,]
train.mod.1.test  = train.mod.1[-train.indices,]

train.mod.1.train$datetime <- NULL
train.mod.1.test$datetime <- NULL

train.mod.1.train

## # A tibble: 8,624 x 12
##    season holiday workingday weather  temp humidity windspeed count year 
##    <fct>  <fct>   <fct>      <fct>   <dbl>    <dbl>     <dbl> <dbl> <fct>
##  1 Summer No      Yes        Great    29.5       39     22.0   5.91 2012 
##  2 Winter No      Yes        Good     23.0       73      0     3.43 2012 
##  3 Fall   No      No         Great    37.7       37     15.0   5.78 2012 
##  4 Winter No      No         Good     24.6       56     28.0   6.36 2012 
##  5 Winter No      Yes        Great    10.7       70      6.00  3.64 2011 
##  6 Summer No      Yes        Average  15.6       94     22.0   1.10 2011 
##  7 Fall   No      Yes        Great    33.6       46     22.0   5.20 2011 
##  8 Spring No      Yes        Great    16.4       43     15.0   5.04 2012 
##  9 Summer No      Yes        Great    26.2       78      7.00  6.22 2012 
## 10 Winter No      No         Great    12.3       70      0     4.54 2012 
## # ... with 8,614 more rows, and 3 more variables: month <ord>, day <fct>,
## #   hour <fct>
…
