…
### Outlier

``` r
outliers <- train[   train$count > mean(train$count) + (sd(train$count) * 2), ]

outliers
```

    ## # A tibble: 589 x 16
    ##    datetime            season holiday workingday weather  temp atemp
    ##    <dttm>              <fct>  <fct>   <fct>      <fct>   <dbl> <dbl>
    ##  1 2011-05-09 17:00:00 Summer No      Yes        Great    25.4  31.1
    ##  2 2011-05-10 17:00:00 Summer No      Yes        Great    26.2  31.1
    ##  3 2011-05-12 17:00:00 Summer No      Yes        Good     26.2  31.1
    ##  4 2011-05-17 17:00:00 Summer No      Yes        Great    25.4  30.3
    ##  5 2011-05-18 17:00:00 Summer No      Yes        Great    24.6  29.5
    ##  6 2011-06-02 17:00:00 Summer No      Yes        Great    31.2  32.6
    ##  7 2011-06-03 17:00:00 Summer No      Yes        Great    29.5  31.8
    ##  8 2011-06-03 18:00:00 Summer No      Yes        Great    28.7  31.8
    ##  9 2011-06-06 17:00:00 Summer No      Yes        Great    32.0  34.1
    ## 10 2011-06-06 18:00:00 Summer No      Yes        Great    31.2  33.3
    ## # … with 579 more rows, and 9 more variables: humidity <dbl>,
    ## #   windspeed <dbl>, casual <dbl>, registered <dbl>, count <dbl>,
    ## #   year <fct>, month <ord>, day <fct>, hour <fct>
…
``` r
train <- train %>%
  filter(!datetime=='2012-01-09 18:00:00')

train
```

    ## # A tibble: 10,296 x 16
    ##    datetime            season holiday workingday weather  temp atemp
    ##    <dttm>              <fct>  <fct>   <fct>      <fct>   <dbl> <dbl>
    ##  1 2011-01-01 00:00:00 Spring No      No         Great    9.84  14.4
    ##  2 2011-01-01 01:00:00 Spring No      No         Great    9.02  13.6
    ##  3 2011-01-01 02:00:00 Spring No      No         Great    9.02  13.6
    ##  4 2011-01-01 03:00:00 Spring No      No         Great    9.84  14.4
    ##  5 2011-01-01 04:00:00 Spring No      No         Great    9.84  14.4
    ##  6 2011-01-01 05:00:00 Spring No      No         Good     9.84  12.9
    ##  7 2011-01-01 06:00:00 Spring No      No         Great    9.02  13.6
    ##  8 2011-01-01 07:00:00 Spring No      No         Great    8.2   12.9
    ##  9 2011-01-01 08:00:00 Spring No      No         Great    9.84  14.4
    ## 10 2011-01-01 09:00:00 Spring No      No         Great   13.1   17.4
    ## # … with 10,286 more rows, and 9 more variables: humidity <dbl>,
    ## #   windspeed <dbl>, casual <dbl>, registered <dbl>, count <dbl>,
    ## #   year <fct>, month <ord>, day <fct>, hour <fct>
…
